…
`ccm()` is shorthand for getting the maximum component value. It returns
the maximum number of components that a group is broken into. This
returns 1 if each group is connected. \#'

## Examples

``` r
data(checkerboard)
adj <- adjacency(checkerboard)
#> Warning: Planarizing skipped. `x` missing CRS.
# These each indicate the graph is connected.
check_contiguity(adj) # all contiguous
#> # A tibble: 64 × 3
#>    group group_number component
#>    <int>        <int>     <int>
#>  1     1            1         1
#>  2     1            1         1
#>  3     1            1         1
#>  4     1            1         1
#>  5     1            1         1
#>  6     1            1         1
#>  7     1            1         1
#>  8     1            1         1
#>  9     1            1         1
#> 10     1            1         1
#> # ℹ 54 more rows
…
