…
  numeric EPSG code to planarize to. Default is 3857.

## Value

tibble with one column, `geary`, and one row per observation

## Examples

``` r
library(dplyr)
data('checkerboard')
checkerboard <- checkerboard |> mutate(m = as.numeric((id + i) %% 2 == 0))
local_gearys(shp = checkerboard, wts = checkerboard$m)
#> Warning: Planarizing skipped. `x` missing CRS.
#> # A tibble: 64 × 1
#>    geary
#>    <dbl>
#>  1     8
#>  2    12
#>  3    12
#>  4    12
#>  5    12
#>  6    12
#>  7    12
#>  8     8
#>  9    12
#> 10    16
#> # ℹ 54 more rows
```
